{
    "count": 123,
    "next": "http://foodgram.example.org/api/recipes/?page=4",
    "previous": "http://foodgram.example.org/api/recipes/?page=2",
    "results": [
      {
        "id": 0,
        "tags": [
          {
            "id": 0,
            "name": "Завтрак",
            "color": "#E26C2D",
            "slug": "breakfast"
          }
        ],
        "author": {
          "email": "user@example.com",
          "id": 0,
          "username": "string",
          "first_name": "Вася",
          "last_name": "Пупкин",
          "is_subscribed": false
        },
        "ingredients": [
          {
            "id": 0,
            "name": "Картофель отварной",
            "measurement_unit": "г",
            "amount": 1
          }
        ],
        "is_favorited": true,
        "is_in_shopping_cart": true,
        "name": "string",
        "image": "http://foodgram.example.org/media/recipes/images/image.jpeg",
        "text": "string",
        "cooking_time": 1
      }
    ]
  }








  {
    "id": 0,
    "tags": [
      {
        "id": 0,
        "name": "Завтрак",
        "color": "#E26C2D",
        "slug": "breakfast"
      }
    ],
    "author": {
      "email": "user@example.com",
      "id": 0,
      "username": "string",
      "first_name": "Вася",
      "last_name": "Пупкин",
      "is_subscribed": false
    },
    "ingredients": [
      {
        "id": 0,
        "name": "Картофель отварной",
        "measurement_unit": "г",
        "amount": 1
      }
    ],
    "is_favorited": true,
    "is_in_shopping_cart": true,
    "name": "string",
    "image": "http://foodgram.example.org/media/recipes/images/image.jpeg",
    "text": "string",
    "cooking_time": 1
  }



  {
    "ingredients": [
      {
        "id": 1123,
        "amount": 10
      }
    ],
    "tags": [
      1,
      2
    ],
    "image": "data:image/png;base64,iVBORw0KGgoAAAANSUhEUgAAAAEAAAABAgMAAABieywaAAAACVBMVEUAAAD///9fX1/S0ecCAAAACXBIWXMAAA7EAAAOxAGVKw4bAAAACklEQVQImWNoAAAAggCByxOyYQAAAABJRU5ErkJggg==",
    "name": "string",
    "text": "string",
    "cooking_time": 1
  }



  {
    "ingredients": [
      {
        "id": 1123,
        "amount": 10
      }
    ],
    "tags": [
      1,
      2
    ],
    "image": "data:image/png;base64,iVBORw0KGgoAAAANSUhEUgAAAAEAAAABAgMAAABieywaAAAACVBMVEUAAAD///9fX1/S0ecCAAAACXBIWXMAAA7EAAAOxAGVKw4bAAAACklEQVQImWNoAAAAggCByxOyYQAAAABJRU5ErkJggg==",
    "name": "string",
    "text": "string",
    "cooking_time": 1
  }






